<svg width="57" height="75" viewBox="0 0 57 75" fill="none" xmlns="http://www.w3.org/2000/svg">
<path d="M56 33.1346C56 50.8995 43.6795 74 28.4705 74C13.2615 74 1 50.8389 1 33.1346C1 9.7309 13.3205 1 28.5295 1C43.7385 1 56 10.3372 56 33.1346Z" stroke="white" stroke-miterlimit="10"/>
<path d="M7.44629 24.1668L16.1398 20.3057L28.3226 26.0974L17.8549 31.8891L7.44629 24.1668Z" stroke="white" stroke-miterlimit="10"/>
<path d="M49.1991 24.1668L40.4464 20.3057L28.3228 26.0974L38.7314 31.8891L49.1991 24.1668Z" stroke="white" stroke-miterlimit="10"/>
<path d="M15.4892 7.81738L16.1397 20.3058L17.8547 31.8893L13.5967 47.3339L28.3225 67.243" stroke="white" stroke-miterlimit="10"/>
<path d="M41.0969 7.81738L40.4464 20.3058L38.7314 31.8893L42.9894 47.3339L28.3228 67.243" stroke="white" stroke-miterlimit="10"/>
<path d="M7.44629 49.8679L13.5968 47.334L28.3226 48L42.9893 47.334L49.199 49.8679" stroke="white" stroke-miterlimit="10"/>
<path d="M28.3228 13.9111V26.0979V47.5" stroke="white" stroke-miterlimit="10"/>
<path d="M16.1396 60.4855L20.93 57.288L28.3224 54.2715L36.5429 57.288L41.3332 60.4855" stroke="white" stroke-miterlimit="10"/>
<path d="M28.3226 28.4509C29.5964 28.4509 30.629 27.3975 30.629 26.098C30.629 24.7985 29.5964 23.7451 28.3226 23.7451C27.0487 23.7451 26.0161 24.7985 26.0161 26.098C26.0161 27.3975 27.0487 28.4509 28.3226 28.4509Z" fill="white"/>
<path d="M6.91387 26.1579C8.18769 26.1579 9.22032 25.1045 9.22032 23.805C9.22032 22.5056 8.18769 21.4521 6.91387 21.4521C5.64006 21.4521 4.60742 22.5056 4.60742 23.805C4.60742 25.1045 5.64006 26.1579 6.91387 26.1579Z" fill="white"/>
<path d="M16.1399 22.6589C17.4138 22.6589 18.4464 21.6055 18.4464 20.306C18.4464 19.0066 17.4138 17.9531 16.1399 17.9531C14.8661 17.9531 13.8335 19.0066 13.8335 20.306C13.8335 21.6055 14.8661 22.6589 16.1399 22.6589Z" fill="white"/>
<path d="M17.8548 33.156C19.1286 33.156 20.1612 32.1026 20.1612 30.8031C20.1612 29.5036 19.1286 28.4502 17.8548 28.4502C16.581 28.4502 15.5483 29.5036 15.5483 30.8031C15.5483 32.1026 16.581 33.156 17.8548 33.156Z" fill="white"/>
<path d="M15.9031 40.5163C17.177 40.5163 18.2096 39.4629 18.2096 38.1634C18.2096 36.864 17.177 35.8105 15.9031 35.8105C14.6293 35.8105 13.5967 36.864 13.5967 38.1634C13.5967 39.4629 14.6293 40.5163 15.9031 40.5163Z" fill="white"/>
<path d="M28.3226 40.3357C29.5964 40.3357 30.629 39.2822 30.629 37.9828C30.629 36.6833 29.5964 35.6299 28.3226 35.6299C27.0487 35.6299 26.0161 36.6833 26.0161 37.9828C26.0161 39.2822 27.0487 40.3357 28.3226 40.3357Z" fill="white"/>
<path d="M40.2098 40.3357C41.4836 40.3357 42.5162 39.2822 42.5162 37.9828C42.5162 36.6833 41.4836 35.6299 40.2098 35.6299C38.936 35.6299 37.9033 36.6833 37.9033 37.9828C37.9033 39.2822 38.936 40.3357 40.2098 40.3357Z" fill="white"/>
<path d="M40.2098 23.3825C41.4836 23.3825 42.5162 22.3291 42.5162 21.0297C42.5162 19.7302 41.4836 18.6768 40.2098 18.6768C38.936 18.6768 37.9033 19.7302 37.9033 21.0297C37.9033 22.3291 38.936 23.3825 40.2098 23.3825Z" fill="white"/>
<path d="M38.7313 33.156C40.0051 33.156 41.0377 32.1026 41.0377 30.8031C41.0377 29.5036 40.0051 28.4502 38.7313 28.4502C37.4574 28.4502 36.4248 29.5036 36.4248 30.8031C36.4248 32.1026 37.4574 33.156 38.7313 33.156Z" fill="white"/>
<path d="M49.199 26.1579C50.4728 26.1579 51.5055 25.1045 51.5055 23.805C51.5055 22.5056 50.4728 21.4521 49.199 21.4521C47.9252 21.4521 46.8926 22.5056 46.8926 23.805C46.8926 25.1045 47.9252 26.1579 49.199 26.1579Z" fill="white"/>
<path d="M13.5965 49.6872C14.8703 49.6872 15.9029 48.6338 15.9029 47.3343C15.9029 46.0349 14.8703 44.9814 13.5965 44.9814C12.3227 44.9814 11.29 46.0349 11.29 47.3343C11.29 48.6338 12.3227 49.6872 13.5965 49.6872Z" fill="white"/>
<path d="M28.3221 50.7058C29.5959 50.7058 30.6285 49.6524 30.6285 48.3529C30.6285 47.0534 29.5959 46 28.3221 46C27.0483 46 26.0156 47.0534 26.0156 48.3529C26.0156 49.6524 27.0483 50.7058 28.3221 50.7058Z" fill="white"/>
<path d="M42.2796 49.1443C43.5534 49.1443 44.586 48.0908 44.586 46.7914C44.586 45.4919 43.5534 44.4385 42.2796 44.4385C41.0058 44.4385 39.9731 45.4919 39.9731 46.7914C39.9731 48.0908 41.0058 49.1443 42.2796 49.1443Z" fill="white"/>
<path d="M20.93 60.1237C22.2038 60.1237 23.2364 59.0703 23.2364 57.7709C23.2364 56.4714 22.2038 55.418 20.93 55.418C19.6562 55.418 18.6235 56.4714 18.6235 57.7709C18.6235 59.0703 19.6562 60.1237 20.93 60.1237Z" fill="white"/>
<path d="M28.3226 56.6247C29.5964 56.6247 30.629 55.5713 30.629 54.2718C30.629 52.9724 29.5964 51.9189 28.3226 51.9189C27.0487 51.9189 26.0161 52.9724 26.0161 54.2718C26.0161 55.5713 27.0487 56.6247 28.3226 56.6247Z" fill="white"/>
<path d="M36.4246 59.6413C37.6984 59.6413 38.7311 58.5879 38.7311 57.2884C38.7311 55.989 37.6984 54.9355 36.4246 54.9355C35.1508 54.9355 34.1182 55.989 34.1182 57.2884C34.1182 58.5879 35.1508 59.6413 36.4246 59.6413Z" fill="white"/>
<path d="M28.3226 69.5954C29.5964 69.5954 30.629 68.542 30.629 67.2425C30.629 65.9431 29.5964 64.8896 28.3226 64.8896C27.0487 64.8896 26.0161 65.9431 26.0161 67.2425C26.0161 68.542 27.0487 69.5954 28.3226 69.5954Z" fill="white"/>
<path d="M5.61279 36.4141L16.1397 38.1637H40.387L50.4407 36.4141" stroke="white" stroke-miterlimit="10"/>
</svg>
