<svg width="27" height="26" viewBox="0 0 27 26" fill="none" xmlns="http://www.w3.org/2000/svg">
<path d="M9.92316 5.03535C9.92316 5.69056 9.92316 8.61502 9.92316 8.61502H7.19971V12.9923H9.92316V25.9999H15.5177V12.9926H19.2719C19.2719 12.9926 19.6235 10.8938 19.7939 8.59888C19.3053 8.59888 15.5389 8.59888 15.5389 8.59888C15.5389 8.59888 15.5389 6.05234 15.5389 5.60599C15.5389 5.15866 16.1488 4.55695 16.7517 4.55695C17.3535 4.55695 18.6235 4.55695 19.7998 4.55695C19.7998 3.96099 19.7998 1.90179 19.7998 1.56361e-08C18.2295 1.56361e-08 16.4429 1.56361e-08 15.6554 1.56361e-08C9.78487 -0.00030223 9.92316 4.38129 9.92316 5.03535Z" fill="white"/>
</svg>
