<svg width="37" height="37" viewBox="0 0 37 37" fill="none" xmlns="http://www.w3.org/2000/svg">
<path d="M18.5 36C28.2 36 36 28.2 36 18.5C36 8.8 28.2 1 18.5 1C8.8 1 1 8.8 1 18.5C1 28.2 8.8 36 18.5 36Z" stroke="white" stroke-miterlimit="10"/>
<path d="M18.5001 20.3996C19.5001 20.3996 20.4001 19.4996 20.4001 18.4996C20.4001 17.4996 19.5001 16.5996 18.5001 16.5996C17.5001 16.5996 16.6001 17.4996 16.6001 18.4996C16.6001 19.4996 17.5001 20.3996 18.5001 20.3996Z" stroke="white" stroke-miterlimit="10"/>
<path d="M10.6001 26.3996L15.8001 15.7996L26.4001 10.5996L21.2001 21.1996L10.6001 26.3996Z" stroke="white" stroke-miterlimit="10"/>
</svg>
