<svg width="33" height="25" viewBox="0 0 33 25" fill="none" xmlns="http://www.w3.org/2000/svg">
<g clip-path="url(#clip0)">
<path d="M32.2589 22.6321C32.1593 23.2848 32.0882 23.9375 31.9602 24.5902C31.9318 24.742 31.7895 24.9696 31.69 24.9848C30.3247 25.0152 28.9735 25 27.594 25C29.6562 16.9551 24.3655 10.17 18.5344 9.12265C18.5344 9.35033 18.5344 9.56284 18.5344 9.79053C18.5344 13.3424 18.5344 16.8792 18.5487 20.4311C18.5487 20.8257 18.4491 21.0383 18.1078 21.2052C16.9842 21.7668 15.8891 22.3892 14.7656 22.9812C14.6091 23.0571 14.4527 23.133 14.2393 23.2392C14.2393 18.4882 14.2393 13.813 14.2393 9.01639C10.7549 9.77535 8.09533 11.6576 6.26066 14.8148C4.42599 17.9569 4.07044 21.357 4.96644 24.9848C3.57266 24.9848 2.22155 25 0.870439 24.9545C0.756661 24.9545 0.55755 24.6357 0.529106 24.4536C0.159328 22.2678 0.17355 20.082 0.600217 17.8962C1.95133 10.9593 7.19933 5.63145 13.77 4.52338C13.9122 4.49302 14.0402 4.46266 14.2109 4.41712C14.2109 3.82514 14.1967 3.26351 14.2251 2.70188C14.2251 2.53491 14.2962 2.29205 14.41 2.23133C15.7469 1.48755 17.0838 0.774135 18.5344 0C18.5344 0.880389 18.5344 1.63934 18.5344 2.41348C18.5344 2.86885 18.5771 3.32423 18.5202 3.7796C18.4491 4.37158 18.6909 4.52338 19.1887 4.62963C25.2758 5.99575 29.3575 9.85124 31.434 16.0899C31.818 17.2587 31.9318 18.5337 32.1593 19.748C32.1878 19.8695 32.2162 20.0061 32.2447 20.1275C32.2589 20.9624 32.2589 21.7972 32.2589 22.6321Z" fill="white"/>
</g>
<defs>
<clipPath id="clip0">
<rect width="32" height="25" fill="white" transform="translate(0.257812)"/>
</clipPath>
</defs>
</svg>
