<svg width="39" height="24" viewBox="0 0 39 24" fill="none" xmlns="http://www.w3.org/2000/svg">
<path opacity="0.5" d="M27 -1.04907e-06C20.3726 -1.62846e-06 15 5.37258 15 12C15 18.6274 20.3726 24 27 24C33.6274 24 39 18.6274 39 12C39 5.37258 33.6274 -4.69686e-07 27 -1.04907e-06Z" fill="white"/>
<path opacity="0.25" d="M12 -1.04907e-06C5.37258 -1.62846e-06 1.62846e-06 5.37258 1.04907e-06 12C4.69686e-07 18.6274 5.37258 24 12 24C18.6274 24 24 18.6274 24 12C24 5.37258 18.6274 -4.69686e-07 12 -1.04907e-06Z" fill="white"/>
<path opacity="0.15" d="M24 12.375C24 8.5763 22.2416 5.19146 19.5 3C16.7585 5.19155 15 8.5763 15 12.375C15 16.1737 16.7584 19.5585 19.5 21.75C22.2415 19.5584 24 16.1736 24 12.375Z" fill="white"/>
</svg>
