<svg width="34" height="47" viewBox="0 0 34 47" fill="none" xmlns="http://www.w3.org/2000/svg">
<rect x="0.5" y="6.9" width="33" height="33.2" rx="2.5" stroke="white"/>
<path d="M33.5 14.3875V37.6C33.5 38.9807 32.3807 40.1 31 40.1H3C1.61929 40.1 0.5 38.9807 0.5 37.6V9.4C0.5 8.01929 1.61929 6.9 3 6.9H9.82431C10.7215 6.9 11.5498 7.38073 11.9949 8.15969L13.1173 10.1239C13.7405 11.2145 14.9002 11.8875 16.1562 11.8875H31C32.3807 11.8875 33.5 13.0068 33.5 14.3875Z" stroke="white"/>
<path d="M4.97363 1C4.97363 0.723858 4.74978 0.5 4.47363 0.5C4.19749 0.5 3.97363 0.723858 3.97363 1H4.97363ZM3.97363 3.7C3.97363 3.97614 4.19749 4.2 4.47363 4.2C4.74978 4.2 4.97363 3.97614 4.97363 3.7H3.97363ZM13.0263 1C13.0263 0.723858 12.8024 0.5 12.5263 0.5C12.2501 0.5 12.0263 0.723858 12.0263 1H13.0263ZM12.0263 3.7C12.0263 3.97614 12.2501 4.2 12.5263 4.2C12.8024 4.2 13.0263 3.97614 13.0263 3.7H12.0263ZM21.0789 1C21.0789 0.723858 20.855 0.5 20.5789 0.5C20.3028 0.5 20.0789 0.723858 20.0789 1H21.0789ZM20.0789 3.7C20.0789 3.97614 20.3028 4.2 20.5789 4.2C20.855 4.2 21.0789 3.97614 21.0789 3.7H20.0789ZM29.1315 1C29.1315 0.723858 28.9077 0.5 28.6315 0.5C28.3554 0.5 28.1315 0.723858 28.1315 1H29.1315ZM28.1315 3.7C28.1315 3.97614 28.3554 4.2 28.6315 4.2C28.9077 4.2 29.1315 3.97614 29.1315 3.7H28.1315ZM3.97363 1V3.7H4.97363V1H3.97363ZM12.0263 1V3.7H13.0263V1H12.0263ZM20.0789 1V3.7H21.0789V1H20.0789ZM28.1315 1V3.7H29.1315V1H28.1315Z" fill="white"/>
<path d="M4.97363 43.3C4.97363 43.0239 4.74978 42.8 4.47363 42.8C4.19749 42.8 3.97363 43.0239 3.97363 43.3H4.97363ZM3.97363 46C3.97363 46.2761 4.19749 46.5 4.47363 46.5C4.74978 46.5 4.97363 46.2761 4.97363 46H3.97363ZM13.0263 43.3C13.0263 43.0239 12.8024 42.8 12.5263 42.8C12.2501 42.8 12.0263 43.0239 12.0263 43.3H13.0263ZM12.0263 46C12.0263 46.2761 12.2501 46.5 12.5263 46.5C12.8024 46.5 13.0263 46.2761 13.0263 46H12.0263ZM21.0789 43.3C21.0789 43.0239 20.855 42.8 20.5789 42.8C20.3028 42.8 20.0789 43.0239 20.0789 43.3H21.0789ZM20.0789 46C20.0789 46.2761 20.3028 46.5 20.5789 46.5C20.855 46.5 21.0789 46.2761 21.0789 46H20.0789ZM29.1315 43.3C29.1315 43.0239 28.9077 42.8 28.6315 42.8C28.3554 42.8 28.1315 43.0239 28.1315 43.3H29.1315ZM28.1315 46C28.1315 46.2761 28.3554 46.5 28.6315 46.5C28.9077 46.5 29.1315 46.2761 29.1315 46H28.1315ZM3.97363 43.3V46H4.97363V43.3H3.97363ZM12.0263 43.3V46H13.0263V43.3H12.0263ZM20.0789 43.3V46H21.0789V43.3H20.0789ZM28.1315 43.3V46H29.1315V43.3H28.1315Z" fill="white"/>
</svg>
