<svg width="30" height="40" viewBox="0 0 30 40" fill="none" xmlns="http://www.w3.org/2000/svg">
<path d="M1.01562 8.06393C1.01562 7.18407 1.34702 6.33648 1.94381 5.68995L5.69514 1.62602C6.35771 0.908231 7.29011 0.5 8.26695 0.5H20.5156C22.4486 0.5 24.0156 2.067 24.0156 4V31C24.0156 32.933 22.4486 34.5 20.5156 34.5H4.51563C2.58263 34.5 1.01562 32.933 1.01562 31V8.06393Z" stroke="white"/>
<path d="M7.51562 36.7143V37.1714V37.1714C7.51562 38.1813 8.3343 39 9.3442 39H24.5156C26.7248 39 28.5156 37.2091 28.5156 35V7" stroke="white" stroke-linecap="round"/>
<path d="M5.01562 17C5.01562 16.1716 5.6872 15.5 6.51562 15.5H8.51562H18.5156C19.3441 15.5 20.0156 16.1716 20.0156 17V29C20.0156 29.8284 19.3441 30.5 18.5156 30.5H6.51562C5.6872 30.5 5.01562 29.8284 5.01562 29V17Z" stroke="white"/>
</svg>
