<svg width="57" height="28" viewBox="0 0 57 28" fill="none" xmlns="http://www.w3.org/2000/svg">
<g clip-path="url(#clip0)">
<path d="M53.6422 26.6H4.14219C2.54219 26.6 1.24219 25.3 1.24219 23.7V3.4C1.24219 1.8 2.54219 0.5 4.14219 0.5H53.6422C55.2422 0.5 56.5422 1.8 56.5422 3.4V23.8C56.4422 25.3 55.2422 26.6 53.6422 26.6Z" stroke="white" stroke-miterlimit="10"/>
<path d="M4.84229 10.6V4.89998C4.84229 4.49998 5.24229 4.09998 5.64229 4.09998H11.7423" stroke="white" stroke-miterlimit="10" stroke-linecap="round" stroke-linejoin="round"/>
<path d="M11.8423 23H5.64229C5.14229 23 4.84229 22.6 4.84229 22.2V16.5" stroke="white" stroke-miterlimit="10" stroke-linecap="round" stroke-linejoin="round"/>
<path d="M45.9421 4.09998H52.0421C52.5421 4.09998 52.8421 4.49998 52.8421 4.89998V10.6" stroke="white" stroke-miterlimit="10" stroke-linecap="round" stroke-linejoin="round"/>
<path d="M52.9422 16.5V22.2C52.9422 22.6 52.5422 23 52.1422 23H46.0422" stroke="white" stroke-miterlimit="10" stroke-linecap="round" stroke-linejoin="round"/>
<path d="M18.2422 9.20001H23.2422V10.3H19.4422V13H23.2422V14.1H19.4422V17.9H18.2422V9.20001Z" fill="white"/>
<path d="M29.8421 14.1H25.6421V17.9H24.4421V9.20001H25.6421V13H29.8421V9.20001H31.0421V18H29.8421V14.1Z" fill="white"/>
<path d="M32.5422 9.20001H34.9422C37.7422 9.20001 39.5422 11.1 39.5422 13.6C39.5422 16.1 37.6422 18 35.0422 18H32.5422V9.20001ZM33.6422 10.3V16.9H34.8422C36.9422 16.9 38.3422 15.5 38.3422 13.6C38.3422 11.7 37.0422 10.3 34.8422 10.3H33.6422Z" fill="white"/>
</g>
<defs>
<clipPath id="clip0">
<rect width="56.2" height="27.1" fill="white" transform="translate(0.742188)"/>
</clipPath>
</defs>
</svg>
