<svg width="171" height="48" viewBox="0 0 171 48" fill="none" xmlns="http://www.w3.org/2000/svg">
<path d="M61.1077 6.52481C64.9249 6.52481 67.3218 7.94518 67.3218 11.0522C67.3218 12.6945 66.3009 14.0261 64.9693 14.5144C66.4784 15.0026 67.6769 16.423 67.6769 18.1541C67.6769 21.3055 65.4575 22.8146 61.5515 22.8146H54.4497V6.52481H61.1077ZM57.6899 9.40993V13.2272H61.0189C62.6612 13.2272 63.904 12.8721 63.904 11.3185C63.904 9.76502 62.6168 9.40993 61.0189 9.40993H57.6899ZM57.6899 16.0679V19.9739H61.3296C63.1051 19.9739 64.2591 19.5744 64.2591 17.9765C64.2591 16.4674 63.1051 16.0235 61.3296 16.0235H57.6899V16.0679Z" fill="white"/>
<path d="M80.9484 22.859H77.9745V21.6162C77.2199 22.5039 76.1547 23.1697 74.6011 23.1697C71.4941 23.1697 69.1416 20.5953 69.1416 17.2219C69.1416 13.8486 71.4941 11.2741 74.6011 11.2741C76.1547 11.2741 77.2199 11.8955 77.9745 12.8277V11.5848H80.9484V22.859ZM72.2487 17.2219C72.2487 18.953 73.3583 20.329 75.1782 20.329C76.9092 20.329 78.1077 18.9974 78.1077 17.2219C78.1077 15.4465 76.9092 14.1149 75.1782 14.1149C73.3583 14.1149 72.2487 15.4908 72.2487 17.2219Z" fill="white"/>
<path d="M86.4968 15.5796H87.5621L90.7579 11.5405H94.4864L90.0477 16.8668L94.5307 22.859H90.8023L87.5621 18.2872H86.5412V22.859H83.4785V6.08093H86.5412V15.5796H86.4968Z" fill="white"/>
<path d="M106.337 18.0653C106.337 21.6162 103.807 23.1697 101.011 23.1697C98.1702 23.1697 95.6401 21.6162 95.6401 18.0653V11.5848H98.7028V17.7989C98.7028 19.6188 99.6793 20.329 101.011 20.329C102.298 20.329 103.319 19.5744 103.319 17.7989V11.5848H106.337V18.0653Z" fill="white"/>
<path d="M66.656 41.1462H54.4497V24.8564H66.5672V27.8303H57.7343V31.4256H66.1677V34.3995H57.7343V38.1723H66.7004V41.1462H66.656Z" fill="white"/>
<path d="M72.1154 41.1462H69.0527V24.3681H72.1154V41.1462Z" fill="white"/>
<path d="M85.2536 35.5091C85.2536 35.8642 85.2093 36.2637 85.2093 36.53H77.1753C77.486 38.1723 78.6401 38.8825 80.0604 38.8825C81.0369 38.8825 82.1022 38.483 82.9012 37.8172L84.6766 39.7702C83.3894 40.9687 81.7471 41.5013 79.8385 41.5013C76.3764 41.5013 73.9795 39.1488 73.9795 35.5979C73.9795 32.047 76.332 29.6057 79.7053 29.6057C83.0343 29.5614 85.2536 31.9582 85.2536 35.5091ZM77.2197 34.4439H82.2354C81.9691 32.9791 81.0813 32.1802 79.7941 32.1802C78.3294 32.1802 77.486 33.0679 77.2197 34.4439Z" fill="white"/>
<path d="M97.0606 31.6919L94.8857 33.5117C94.1755 32.7572 93.4653 32.3577 92.4888 32.3577C90.9353 32.3577 89.6481 33.6005 89.6481 35.4647C89.6481 37.3734 90.8909 38.5718 92.4888 38.5718C93.4653 38.5718 94.3086 38.1279 94.93 37.4178L97.105 39.282C96.0397 40.658 94.4418 41.4125 92.5776 41.4125C88.9823 41.4125 86.541 38.8825 86.541 35.4647C86.541 32.047 88.9379 29.517 92.5776 29.517C94.3974 29.5614 95.9953 30.3159 97.0606 31.6919Z" fill="white"/>
<path d="M107.225 32.5796H103.141V36.7075C103.141 38.1279 103.896 38.6162 104.828 38.6162C105.538 38.6162 106.337 38.2611 106.959 37.8616L108.068 40.2585C107.092 40.9243 105.938 41.4569 104.34 41.4569C101.544 41.4569 100.123 39.859 100.123 36.9295V32.5352H97.9482V29.8277H100.123V26.4543H103.186V29.8277H107.269V32.5796H107.225Z" fill="white"/>
<path d="M117.123 29.7833L116.679 32.8016C116.191 32.5796 115.436 32.4465 114.815 32.4465C113.395 32.4465 112.418 33.2898 112.418 34.9765V41.1462H109.355V29.872H112.285V31.1149C112.995 30.0496 114.06 29.5613 115.481 29.5613C116.191 29.5613 116.679 29.6501 117.123 29.7833Z" fill="white"/>
<path d="M129.774 35.5091C129.774 38.9269 127.155 41.4569 123.648 41.4569C120.142 41.4569 117.567 38.9269 117.567 35.5091C117.567 32.0914 120.142 29.5613 123.648 29.5613C127.155 29.5613 129.774 32.0914 129.774 35.5091ZM120.63 35.5091C120.63 37.329 121.917 38.6162 123.648 38.6162C125.379 38.6162 126.667 37.329 126.667 35.5091C126.667 33.6893 125.379 32.4021 123.648 32.4021C121.917 32.4021 120.63 33.6893 120.63 35.5091Z" fill="white"/>
<path d="M141.846 33.9556V41.1462H138.784V34.9321C138.784 33.2898 137.985 32.4021 136.565 32.4021C135.277 32.4021 134.168 33.2454 134.168 34.9765V41.1906H131.105V29.872H134.079V31.2036C134.878 30.0052 136.121 29.5613 137.408 29.5613C140.027 29.5613 141.846 31.3368 141.846 33.9556Z" fill="white"/>
<path d="M147.706 26.188C147.706 27.2976 146.862 28.141 145.753 28.141C144.643 28.141 143.8 27.2976 143.8 26.188C143.8 25.0783 144.643 24.235 145.753 24.235C146.862 24.235 147.706 25.0783 147.706 26.188ZM147.306 41.1462H144.244V29.8721H147.306V41.1462Z" fill="white"/>
<path d="M159.512 31.6919L157.337 33.5117C156.627 32.7572 155.917 32.3577 154.94 32.3577C153.387 32.3577 152.1 33.6005 152.1 35.4647C152.1 37.3734 153.343 38.5718 154.94 38.5718C155.917 38.5718 156.76 38.1279 157.382 37.4178L159.557 39.282C158.491 40.658 156.893 41.4125 155.029 41.4125C151.434 41.4125 148.993 38.8825 148.993 35.4647C148.993 32.047 151.39 29.517 155.029 29.517C156.893 29.5614 158.491 30.3159 159.512 31.6919Z" fill="white"/>
<path d="M169.366 33.0235C168.478 32.5796 167.014 32.0914 165.771 32.0914C164.617 32.0914 164.04 32.4908 164.04 33.1123C164.04 33.7781 164.839 33.9112 165.904 34.0888L166.925 34.2219C169.366 34.577 170.742 35.6867 170.742 37.5953C170.742 39.9478 168.833 41.4125 165.549 41.4125C163.995 41.4125 161.998 41.1018 160.533 40.0809L161.732 37.7728C162.708 38.3942 163.862 38.8825 165.593 38.8825C167.014 38.8825 167.679 38.483 167.679 37.8172C167.679 37.2846 167.102 36.9739 165.815 36.7963L164.883 36.6632C162.264 36.3081 160.977 35.154 160.977 33.2454C160.977 30.9373 162.753 29.5613 165.726 29.5613C167.546 29.5613 168.967 29.9164 170.431 30.6266L169.366 33.0235Z" fill="white"/>
<path d="M0.742188 23.7467C0.742188 10.6527 11.3949 0 24.4889 0C37.6273 0 48.2357 10.6527 48.2357 23.7467C48.2357 36.8407 37.5829 47.4935 24.4889 47.4935C11.3949 47.5379 0.742188 36.8851 0.742188 23.7467Z" fill="white"/>
<path d="M2.34033 23.7467C2.34033 11.4961 12.2829 1.55353 24.5335 1.55353C36.7842 1.55353 46.7268 11.4961 46.7268 23.7467C46.7268 35.9974 36.7842 45.9399 24.5335 45.9399C12.2385 45.9399 2.34033 35.9974 2.34033 23.7467Z" fill="#EB2427"/>
<path d="M8.28792 14.0705V14.4256H11.173C12.5046 14.4256 13.6587 14.9138 14.6352 15.8459C15.6117 16.7781 16.0999 17.9321 16.0999 19.2637C16.0999 20.5953 15.6117 21.7493 14.6352 22.6815C13.6587 23.6136 12.5046 24.1018 11.173 24.1018C9.84144 24.1018 8.68739 23.6136 7.71089 22.6815C6.73439 21.7493 6.29053 20.5953 6.29053 19.2637V12.0287C6.82316 12.0287 7.31141 12.2506 7.71089 12.6501C8.11037 13.0496 8.28792 13.4935 8.28792 14.0705ZM14.0138 19.2637C14.0138 18.4647 13.7474 17.799 13.1704 17.2219C12.6378 16.6449 11.972 16.3786 11.1286 16.3786H8.28792V19.2637C8.28792 20.0627 8.55423 20.7728 9.08687 21.3499C9.6639 21.9269 10.3297 22.1932 11.1286 22.1932C11.9276 22.1932 12.5934 21.9269 13.1704 21.3499C13.7474 20.7728 14.0138 20.0627 14.0138 19.2637Z" fill="#F9FBFC"/>
<path d="M26.3978 19.2637V24.1018H21.4709C20.1393 24.1018 18.9852 23.6136 18.0087 22.6814C17.0322 21.7493 16.5884 20.5953 16.5884 19.2637C16.5884 17.9321 17.0766 16.778 18.0087 15.8459C18.9852 14.9138 20.1393 14.4256 21.4709 14.4256C22.8025 14.4256 23.9565 14.9138 24.933 15.8459C25.9095 16.778 26.3978 17.9321 26.3978 19.2637ZM24.3116 22.1488V19.2637C24.3116 18.4647 24.0453 17.7989 23.4683 17.2219C22.9356 16.6449 22.2698 16.3342 21.4709 16.3342C20.6719 16.3342 20.0061 16.6449 19.4291 17.2219C18.8965 17.7989 18.5858 18.4647 18.5858 19.2637C18.5858 20.0626 18.8521 20.7284 19.4291 21.3055C19.9617 21.8825 20.6719 22.1488 21.4709 22.1488H24.3116Z" fill="#F9FBFC"/>
<path d="M26.3977 34.6658H24.356V25.1227C24.933 25.1227 25.3768 25.3446 25.7763 25.7441C26.1758 26.1436 26.3977 26.6318 26.3977 27.1645V28.9399H29.1053C29.9043 28.9399 30.5701 28.6292 31.1027 28.0522C31.6797 27.4752 31.7685 27.2089 31.9016 26.5874C31.9016 26.5874 31.9904 25.0783 33.9878 25.0783V25.966C33.9878 26.7206 33.8103 27.4752 33.4552 28.141C33.1001 28.8068 32.6118 29.3838 31.9904 29.872C32.6118 30.3159 33.1001 30.8929 33.4552 31.6031C33.8103 32.2689 33.9878 33.0235 33.9878 33.778V34.6214H31.946V33.778C31.946 32.9791 31.6797 32.3133 31.1027 31.7363C30.5257 31.1592 29.8599 30.8485 29.1053 30.8485H26.3977V34.6658Z" fill="#F9FBFC"/>
<path d="M42.4654 29.9608C42.4654 30.7598 42.1991 31.4256 41.622 32.0026C41.0894 32.5796 40.3792 32.8015 39.6246 32.8015C38.8257 32.8015 38.1599 32.5796 37.5829 32.0026C37.0058 31.4256 36.7395 30.7154 36.7395 29.9164V27.1201C36.7395 26.5431 36.562 26.0992 36.1181 25.6997C35.7186 25.3002 35.2304 25.0783 34.6978 25.0783V29.9164C34.6978 31.248 35.186 32.4021 36.1625 33.3342C37.139 34.2663 38.2931 34.7545 39.6246 34.7545C40.9562 34.7545 42.1103 34.2663 43.0868 33.3342C44.0633 32.4021 44.5072 31.248 44.5072 29.9164V25.1227C43.9745 25.1227 43.4863 25.3446 43.0868 25.7441C42.6873 26.1436 42.5098 26.6318 42.5098 27.1645V29.9608H42.4654Z" fill="#F9FBFC"/>
<path d="M27.3296 21.0836V24.1018H29.3714V23.9243H27.5071V22.5927H29.2382V22.4151H27.5071V21.2167H29.327V21.0836H27.3296Z" fill="#F9FBFC"/>
<path d="M29.7264 21.0836H29.5488V24.1018H29.7264V21.0836Z" fill="#F9FBFC"/>
<path d="M30.2146 22.2376C30.0814 22.4595 29.9927 22.7259 29.9927 23.0366C29.9927 23.3473 30.0814 23.6136 30.2146 23.7911C30.3922 24.0131 30.6141 24.1018 30.9248 24.1018C31.4574 24.1018 31.7681 23.8355 31.8569 23.3029H31.6794C31.635 23.5248 31.5462 23.658 31.413 23.7911C31.2799 23.9243 31.1023 23.9687 30.8804 23.9687C30.6141 23.9687 30.3922 23.8799 30.259 23.658C30.1258 23.4804 30.0814 23.2585 30.0814 22.9922H31.8125C31.8125 22.6371 31.7681 22.3708 31.5906 22.1932C31.413 21.9713 31.1911 21.8381 30.836 21.8381C30.6141 21.8825 30.3478 21.9713 30.2146 22.2376ZM30.1258 22.859C30.1702 22.6371 30.2146 22.4152 30.3478 22.282C30.4809 22.1045 30.7029 22.0157 30.9248 22.0157C31.1467 22.0157 31.3687 22.1045 31.5018 22.282C31.635 22.4595 31.7237 22.6371 31.7237 22.9034H30.1258V22.859Z" fill="#F9FBFC"/>
<path d="M31.9902 22.9922C31.9902 23.3473 32.079 23.6136 32.2122 23.7911C32.3897 24.0131 32.656 24.1462 32.9667 24.1462C33.2331 24.1462 33.4106 24.0574 33.5881 23.9243C33.7657 23.7911 33.8545 23.5692 33.8988 23.3473H33.7213C33.6769 23.5692 33.6325 23.7024 33.455 23.8355C33.3218 23.9687 33.1443 24.0131 32.9667 24.0131C32.7004 24.0131 32.4785 23.9243 32.3453 23.7024C32.2122 23.5248 32.1678 23.3029 32.1678 22.9922C32.1678 22.7258 32.2566 22.5039 32.3897 22.3264C32.5673 22.1488 32.7448 22.0157 33.0111 22.0157C33.2331 22.0157 33.3662 22.0601 33.4994 22.1488C33.6325 22.2376 33.7213 22.4151 33.7213 22.5927H33.8988C33.8988 22.3264 33.7657 22.1488 33.6325 22.0601C33.455 21.9269 33.2774 21.8825 33.0111 21.8825C32.7004 21.8825 32.4341 21.9713 32.2566 22.1932C32.079 22.3708 31.9902 22.6371 31.9902 22.9922Z" fill="#F9FBFC"/>
<path d="M34.2984 22.0601V23.5692C34.2984 23.7467 34.3428 23.8799 34.4316 23.9687C34.5203 24.0574 34.6535 24.1018 34.831 24.1018C34.8754 24.1018 34.9198 24.1018 34.9198 24.1018V23.9687C34.7423 23.9687 34.6535 23.9687 34.5647 23.9243C34.4759 23.8799 34.4316 23.7467 34.4316 23.6136V22.1044H34.9198V21.9713H34.476V21.3055H34.2984V21.9713H33.8989V22.1044H34.2984V22.0601Z" fill="#F9FBFC"/>
<path d="M35.0972 21.9269V24.1018H35.2747V22.9034C35.2747 22.6371 35.3635 22.4151 35.4966 22.282C35.6298 22.1488 35.8074 22.0601 36.0293 22.0601C36.0737 22.0601 36.0737 22.0601 36.1181 22.0601V21.8825C35.9405 21.8825 35.763 21.9269 35.6298 21.9713C35.4523 22.0601 35.3635 22.1932 35.3191 22.3708V21.8825H35.0972V21.9269Z" fill="#F9FBFC"/>
<path d="M36.2512 22.1932C36.0736 22.4152 35.9849 22.6815 35.9849 22.9922C35.9849 23.3029 36.0736 23.5692 36.2512 23.7911C36.4287 24.0131 36.695 24.1462 37.0057 24.1462C37.3165 24.1462 37.5828 24.0131 37.7603 23.7911C37.9379 23.5692 38.0266 23.3029 38.0266 22.9922C38.0266 22.6815 37.9379 22.4152 37.7603 22.1932C37.5828 21.9713 37.3165 21.8381 37.0057 21.8381C36.695 21.8825 36.4287 21.9713 36.2512 22.1932ZM36.3843 23.7024C36.2512 23.5248 36.1624 23.3029 36.1624 23.0366C36.1624 22.7702 36.2512 22.5483 36.3843 22.3708C36.5175 22.1488 36.7394 22.0601 37.0057 22.0601C37.2721 22.0601 37.494 22.1488 37.6272 22.3708C37.7603 22.5483 37.8491 22.7702 37.8491 23.0366C37.8491 23.3029 37.7603 23.5248 37.6272 23.7024C37.494 23.9243 37.2721 24.0131 37.0057 24.0131C36.7394 24.0131 36.5175 23.8799 36.3843 23.7024Z" fill="#F9FBFC"/>
<path d="M38.2041 21.9269V24.1018H38.3816V22.9478C38.3816 22.6815 38.426 22.4595 38.5592 22.3264C38.6924 22.1488 38.8699 22.0601 39.1362 22.0601C39.5357 22.0601 39.7576 22.282 39.7576 22.7703V24.1462H39.9352V22.8146C39.9352 22.5927 39.8908 22.4152 39.8464 22.282C39.7132 22.0601 39.4913 21.9269 39.1806 21.9269C39.0031 21.9269 38.8699 21.9713 38.6924 22.0601C38.5592 22.1488 38.426 22.282 38.3816 22.4595V22.0157H38.2041V21.9269Z" fill="#F9FBFC"/>
<path d="M40.4681 21.9269H40.2905V24.1018H40.4681V21.9269Z" fill="#F9FBFC"/>
<path d="M40.4681 21.0836H40.2905V21.5274H40.4681V21.0836Z" fill="#F9FBFC"/>
<path d="M40.9563 22.1932C40.7787 22.4151 40.6899 22.6371 40.6899 22.9922C40.6899 23.3473 40.7787 23.6136 40.9119 23.7911C41.0894 24.0131 41.3557 24.1462 41.6664 24.1462C41.9328 24.1462 42.1103 24.0574 42.2879 23.9243C42.4654 23.7911 42.5542 23.5692 42.5986 23.3473H42.4654C42.421 23.5692 42.3766 23.7024 42.2435 23.8355C42.1103 23.9687 41.9328 24.0131 41.7552 24.0131C41.4889 24.0131 41.267 23.9243 41.1338 23.7024C41.0006 23.5248 40.9563 23.3029 40.9563 22.9922C40.9563 22.7258 41.045 22.5039 41.1782 22.3264C41.3557 22.1488 41.5333 22.0157 41.7996 22.0157C41.9771 22.0157 42.1547 22.0601 42.2879 22.1488C42.421 22.2376 42.5098 22.4151 42.5098 22.5927H42.6873C42.6873 22.3264 42.5542 22.1488 42.421 22.0601C42.2435 21.9269 42.0659 21.8825 41.7996 21.8825C41.4001 21.8825 41.1338 21.9713 40.9563 22.1932Z" fill="#F9FBFC"/>
<path d="M44.1074 23.1697C44.2406 23.2585 44.3294 23.3473 44.3294 23.5248C44.3294 23.8355 44.1074 23.9687 43.6192 23.9687C43.4416 23.9687 43.2641 23.9243 43.1309 23.7911C42.9978 23.658 42.909 23.5248 42.909 23.3473H42.7314C42.7314 23.6136 42.8202 23.7911 42.9978 23.9243C43.1753 24.0574 43.3529 24.1018 43.6192 24.1018C43.8411 24.1018 44.063 24.0574 44.1962 23.9687C44.3737 23.8799 44.4625 23.7023 44.4625 23.4804C44.4625 23.2585 44.3737 23.1253 44.2406 23.0366C44.1518 22.9478 43.9743 22.9034 43.7523 22.859C43.486 22.8146 43.3085 22.7702 43.2197 22.7258C43.0865 22.6371 42.9978 22.5483 42.9978 22.3708C42.9978 22.2376 43.0865 22.1044 43.2197 22.0157C43.3529 21.9713 43.486 21.9269 43.6192 21.9269C44.063 21.9269 44.2406 22.1044 44.2406 22.4595H44.4181C44.4181 22.0157 44.1518 21.7937 43.6192 21.7937C43.3972 21.7937 43.2197 21.8381 43.0865 21.8825C42.909 21.9713 42.8202 22.1488 42.8202 22.3264C42.8202 22.5039 42.909 22.6815 43.0422 22.7702C43.1309 22.8146 43.3085 22.9034 43.5304 22.9478C43.8411 23.0809 44.0187 23.1253 44.1074 23.1697Z" fill="#F9FBFC"/>
</svg>
