<svg width="47" height="47" viewBox="0 0 47 47" fill="none" xmlns="http://www.w3.org/2000/svg">
<rect x="7.3501" y="6.9" width="33.2" height="33.2" rx="2.5" stroke="white"/>
<path d="M17.65 35.7C17.9261 35.7 18.15 35.4761 18.15 35.2C18.15 34.9239 17.9261 34.7 17.65 34.7V35.7ZM12.75 29.8C12.75 29.5239 12.5261 29.3 12.25 29.3C11.9739 29.3 11.75 29.5239 11.75 29.8H12.75ZM17.65 34.7H13.25V35.7H17.65V34.7ZM12.75 34.2V29.8H11.75V34.2H12.75ZM13.25 34.7C12.9739 34.7 12.75 34.4761 12.75 34.2H11.75C11.75 35.0284 12.4216 35.7 13.25 35.7V34.7Z" fill="white"/>
<path d="M30.2499 11.3C29.9738 11.3 29.7499 11.5239 29.7499 11.8C29.7499 12.0761 29.9738 12.3 30.2499 12.3L30.2499 11.3ZM35.1499 17.2C35.1499 17.4761 35.3738 17.7 35.6499 17.7C35.926 17.7 36.1499 17.4761 36.1499 17.2L35.1499 17.2ZM30.2499 12.3L34.6499 12.3L34.6499 11.3L30.2499 11.3L30.2499 12.3ZM35.1499 12.8L35.1499 17.2L36.1499 17.2L36.1499 12.8L35.1499 12.8ZM34.6499 12.3C34.926 12.3 35.1499 12.5239 35.1499 12.8L36.1499 12.8C36.1499 11.9716 35.4783 11.3 34.6499 11.3L34.6499 12.3Z" fill="white"/>
<path d="M11.8501 1C11.8501 0.723858 11.6262 0.5 11.3501 0.5C11.074 0.5 10.8501 0.723858 10.8501 1H11.8501ZM10.8501 3.7C10.8501 3.97614 11.074 4.2 11.3501 4.2C11.6262 4.2 11.8501 3.97614 11.8501 3.7H10.8501ZM19.9501 1C19.9501 0.723858 19.7262 0.5 19.4501 0.5C19.174 0.5 18.9501 0.723858 18.9501 1H19.9501ZM18.9501 3.7C18.9501 3.97614 19.174 4.2 19.4501 4.2C19.7262 4.2 19.9501 3.97614 19.9501 3.7H18.9501ZM28.0501 1C28.0501 0.723858 27.8262 0.5 27.5501 0.5C27.274 0.5 27.0501 0.723858 27.0501 1H28.0501ZM27.0501 3.7C27.0501 3.97614 27.274 4.2 27.5501 4.2C27.8262 4.2 28.0501 3.97614 28.0501 3.7H27.0501ZM36.1501 1C36.1501 0.723858 35.9262 0.5 35.6501 0.5C35.374 0.5 35.1501 0.723858 35.1501 1H36.1501ZM35.1501 3.7C35.1501 3.97614 35.374 4.2 35.6501 4.2C35.9262 4.2 36.1501 3.97614 36.1501 3.7H35.1501ZM10.8501 1V3.7H11.8501V1H10.8501ZM18.9501 1V3.7H19.9501V1H18.9501ZM27.0501 1V3.7H28.0501V1H27.0501ZM35.1501 1V3.7H36.1501V1H35.1501Z" fill="white"/>
<path d="M11.8501 43.3C11.8501 43.0239 11.6262 42.8 11.3501 42.8C11.074 42.8 10.8501 43.0239 10.8501 43.3H11.8501ZM10.8501 46C10.8501 46.2761 11.074 46.5 11.3501 46.5C11.6262 46.5 11.8501 46.2761 11.8501 46H10.8501ZM19.9501 43.3C19.9501 43.0239 19.7262 42.8 19.4501 42.8C19.174 42.8 18.9501 43.0239 18.9501 43.3H19.9501ZM18.9501 46C18.9501 46.2761 19.174 46.5 19.4501 46.5C19.7262 46.5 19.9501 46.2761 19.9501 46H18.9501ZM28.0501 43.3C28.0501 43.0239 27.8262 42.8 27.5501 42.8C27.274 42.8 27.0501 43.0239 27.0501 43.3H28.0501ZM27.0501 46C27.0501 46.2761 27.274 46.5 27.5501 46.5C27.8262 46.5 28.0501 46.2761 28.0501 46H27.0501ZM36.1501 43.3C36.1501 43.0239 35.9262 42.8 35.6501 42.8C35.374 42.8 35.1501 43.0239 35.1501 43.3H36.1501ZM35.1501 46C35.1501 46.2761 35.374 46.5 35.6501 46.5C35.9262 46.5 36.1501 46.2761 36.1501 46H35.1501ZM10.8501 43.3V46H11.8501V43.3H10.8501ZM18.9501 43.3V46H19.9501V43.3H18.9501ZM27.0501 43.3V46H28.0501V43.3H27.0501ZM35.1501 43.3V46H36.1501V43.3H35.1501Z" fill="white"/>
<path d="M46 11.85C46.2761 11.85 46.5 11.6261 46.5 11.35C46.5 11.0739 46.2761 10.85 46 10.85L46 11.85ZM43.3 10.85C43.0239 10.85 42.8 11.0739 42.8 11.35C42.8 11.6261 43.0239 11.85 43.3 11.85L43.3 10.85ZM46 19.95C46.2761 19.95 46.5 19.7261 46.5 19.45C46.5 19.1739 46.2761 18.95 46 18.95L46 19.95ZM43.3 18.95C43.0239 18.95 42.8 19.1739 42.8 19.45C42.8 19.7261 43.0239 19.95 43.3 19.95L43.3 18.95ZM46 28.05C46.2761 28.05 46.5 27.8261 46.5 27.55C46.5 27.2739 46.2761 27.05 46 27.05L46 28.05ZM43.3 27.05C43.0239 27.05 42.8 27.2739 42.8 27.55C42.8 27.8261 43.0239 28.05 43.3 28.05L43.3 27.05ZM46 36.15C46.2761 36.15 46.5 35.9261 46.5 35.65C46.5 35.3739 46.2761 35.15 46 35.15L46 36.15ZM43.3 35.15C43.0239 35.15 42.8 35.3739 42.8 35.65C42.8 35.9261 43.0239 36.15 43.3 36.15L43.3 35.15ZM46 10.85L43.3 10.85L43.3 11.85L46 11.85L46 10.85ZM46 18.95L43.3 18.95L43.3 19.95L46 19.95L46 18.95ZM46 27.05L43.3 27.05L43.3 28.05L46 28.05L46 27.05ZM46 35.15L43.3 35.15L43.3 36.15L46 36.15L46 35.15Z" fill="white"/>
<path d="M3.7002 11.85C3.97634 11.85 4.2002 11.6261 4.2002 11.35C4.2002 11.0739 3.97634 10.85 3.7002 10.85L3.7002 11.85ZM1.0002 10.85C0.724053 10.85 0.500195 11.0739 0.500195 11.35C0.500195 11.6261 0.724053 11.85 1.0002 11.85L1.0002 10.85ZM3.70019 19.95C3.97634 19.95 4.20019 19.7261 4.20019 19.45C4.20019 19.1739 3.97634 18.95 3.70019 18.95L3.70019 19.95ZM1.00019 18.95C0.724053 18.95 0.500195 19.1739 0.500195 19.45C0.500195 19.7261 0.724053 19.95 1.00019 19.95L1.00019 18.95ZM3.70019 28.05C3.97634 28.05 4.20019 27.8261 4.20019 27.55C4.20019 27.2739 3.97634 27.05 3.70019 27.05L3.70019 28.05ZM1.00019 27.05C0.724052 27.05 0.500195 27.2739 0.500195 27.55C0.500195 27.8261 0.724052 28.05 1.00019 28.05L1.00019 27.05ZM3.70019 36.15C3.97634 36.15 4.20019 35.9261 4.20019 35.65C4.20019 35.3739 3.97634 35.15 3.70019 35.15L3.70019 36.15ZM1.00019 35.15C0.724052 35.15 0.500194 35.3739 0.500194 35.65C0.500194 35.9261 0.724052 36.15 1.00019 36.15L1.00019 35.15ZM3.7002 10.85L1.0002 10.85L1.0002 11.85L3.7002 11.85L3.7002 10.85ZM3.70019 18.95L1.00019 18.95L1.00019 19.95L3.70019 19.95L3.70019 18.95ZM3.70019 27.05L1.00019 27.05L1.00019 28.05L3.70019 28.05L3.70019 27.05ZM3.70019 35.15L1.00019 35.15L1.00019 36.15L3.70019 36.15L3.70019 35.15Z" fill="white"/>
</svg>
