<svg width="30" height="30" viewBox="0 0 30 30" fill="none" xmlns="http://www.w3.org/2000/svg">
<path fill-rule="evenodd" clip-rule="evenodd" d="M3.79402 0.864461C2.12772 0.864461 0.864461 2.12772 0.864461 3.79402V26.206C0.864461 27.8723 2.12772 29.1355 3.79402 29.1355H26.206C27.8723 29.1355 29.1355 27.8723 29.1355 26.206V3.79402C29.1355 2.12772 27.8723 0.864461 26.206 0.864461H3.79402ZM0 3.79402C0 1.65029 1.65029 0 3.79402 0H26.206C28.3497 0 30 1.65029 30 3.79402V26.206C30 28.3497 28.3497 30 26.206 30H3.79402C1.65029 30 0 28.3497 0 26.206V3.79402ZM9.17289 7.58805C8.29101 7.58805 7.58805 8.29101 7.58805 9.17289V20.8271C7.58805 21.709 8.29101 22.412 9.17289 22.412H20.9392C21.6935 22.412 22.4224 21.7218 22.524 20.9138V9.17289C22.524 8.29101 21.8211 7.58805 20.9392 7.58805H9.17289ZM6.72359 9.17289C6.72359 7.81358 7.81358 6.72359 9.17289 6.72359H20.9392C22.2985 6.72359 23.3885 7.81358 23.3885 9.17289V20.9631L23.3858 20.9869C23.2526 22.1863 22.195 23.2764 20.9392 23.2764H9.17289C7.81358 23.2764 6.72359 22.1864 6.72359 20.8271V9.17289ZM11.6834 11.6835C11.5815 11.7826 11.5101 11.9323 11.5101 12.1362C11.5101 12.5267 11.7774 12.8373 12.1872 12.8866C12.5899 12.8762 12.8869 12.5647 12.8869 12.1985C12.8869 11.8261 12.5797 11.5101 12.1665 11.5101C11.9462 11.5101 11.7861 11.5836 11.6834 11.6835ZM11.0808 11.0637C11.3622 10.7901 11.7465 10.6457 12.1665 10.6457C13.034 10.6457 13.7513 11.3258 13.7513 12.1985C13.7513 13.0712 13.034 13.7513 12.1665 13.7513H12.1455L12.1247 13.7493C11.2657 13.6658 10.6457 12.9842 10.6457 12.1362C10.6457 11.7176 10.7985 11.3382 11.0808 11.0637ZM17.8015 11.5101C17.4177 11.5101 17.1131 11.8147 17.1131 12.1985C17.1131 12.5823 17.4177 12.8869 17.8015 12.8869C18.1444 12.8869 18.4366 12.6217 18.4896 12.1778C18.4788 11.8038 18.1784 11.5101 17.8015 11.5101ZM16.2487 12.1985C16.2487 11.3372 16.9402 10.6457 17.8015 10.6457C18.6628 10.6457 19.3543 11.3372 19.3543 12.1985V12.2201L19.3522 12.2415C19.2734 13.0293 18.698 13.7513 17.8015 13.7513C16.9402 13.7513 16.2487 13.0598 16.2487 12.1985ZM15 13.7513C14.3049 13.7513 13.7513 14.3049 13.7513 15C13.7513 15.6951 14.3049 16.2487 15 16.2487C15.6951 16.2487 16.2487 15.6951 16.2487 15C16.2487 14.3049 15.6951 13.7513 15 13.7513ZM12.8869 15C12.8869 13.8275 13.8275 12.8869 15 12.8869C16.1725 12.8869 17.1131 13.8275 17.1131 15C17.1131 16.1725 16.1725 17.1131 15 17.1131C13.8275 17.1131 12.8869 16.1725 12.8869 15ZM12.1985 17.1131C11.8147 17.1131 11.5101 17.4177 11.5101 17.8015C11.5101 18.1853 11.8147 18.4899 12.1985 18.4899C12.5985 18.4899 12.8869 18.2318 12.8869 17.8015C12.8869 17.4177 12.5823 17.1131 12.1985 17.1131ZM10.6457 17.8015C10.6457 16.9402 11.3372 16.2487 12.1985 16.2487C13.0598 16.2487 13.7513 16.9402 13.7513 17.8015C13.7513 18.7408 13.0436 19.3543 12.1985 19.3543C11.3372 19.3543 10.6457 18.6628 10.6457 17.8015ZM17.8015 17.1131C17.4177 17.1131 17.1131 17.4177 17.1131 17.8015C17.1131 18.1444 17.3783 18.4366 17.8222 18.4896C18.1962 18.4788 18.4899 18.1784 18.4899 17.8015C18.4899 17.4177 18.1853 17.1131 17.8015 17.1131ZM16.2487 17.8015C16.2487 16.9402 16.9402 16.2487 17.8015 16.2487C18.6628 16.2487 19.3543 16.9402 19.3543 17.8015C19.3543 18.6628 18.6628 19.3543 17.8015 19.3543H17.7799L17.7585 19.3522C16.9707 19.2734 16.2487 18.698 16.2487 17.8015Z" fill="white"/>
</svg>
