<svg width="15" height="21" viewBox="0 0 15 21" fill="none" xmlns="http://www.w3.org/2000/svg">
<path d="M5.03418 18.1666V4.46633L14.4428 1V14.8653" stroke="white" stroke-miterlimit="10"/>
<path d="M5.03418 8.09778L14.4428 4.79651" stroke="white" stroke-miterlimit="10"/>
<path d="M2.88801 20.3124C4.07312 20.3124 5.03383 19.3517 5.03383 18.1666C5.03383 16.9815 4.07312 16.0208 2.88801 16.0208C1.7029 16.0208 0.742188 16.9815 0.742188 18.1666C0.742188 19.3517 1.7029 20.3124 2.88801 20.3124Z" stroke="white" stroke-miterlimit="10"/>
<path d="M12.2967 16.6811C13.4818 16.6811 14.4425 15.7203 14.4425 14.5352C14.4425 13.3501 13.4818 12.3894 12.2967 12.3894C11.1116 12.3894 10.1509 13.3501 10.1509 14.5352C10.1509 15.7203 11.1116 16.6811 12.2967 16.6811Z" stroke="white" stroke-miterlimit="10"/>
</svg>
