<svg width="32" height="22" viewBox="0 0 32 22" fill="none" xmlns="http://www.w3.org/2000/svg">
<g clip-path="url(#clip0)">
<path d="M31.3438 3.44268C30.975 2.09874 29.8937 1.0371 28.525 0.675035C26.0187 0 16 0 16 0C16 0 5.98125 0 3.48125 0.644351C2.1375 1.00642 1.03125 2.09261 0.6625 3.43654C0 5.90349 0 10.9969 0 10.9969C0 10.9969 0 16.1211 0.65625 18.5573C1.025 19.9013 2.10625 20.9629 3.475 21.325C6.00625 22 15.9937 22 15.9937 22C15.9937 22 26.0125 22 28.5125 21.3556C29.8813 20.9936 30.9625 19.9319 31.3312 18.588C32 16.1272 32 11.0276 32 11.0276C32 11.0276 32.025 5.90349 31.3438 3.44268ZM12.8125 15.7099V6.2901L21.1437 11.0031L12.8125 15.7099Z" fill="white"/>
</g>
<defs>
<clipPath id="clip0">
<rect width="32" height="22" fill="white"/>
</clipPath>
</defs>
</svg>
